{
  "email": "{{@@ rbw_username @@}}",
  "base_url": "{{@@ rbw_url @@}}",
  "identity_url": null,
  "notifications_url": null,
{#@@ 8 hours timeout, timeout does not run if mac sleeps. see also https://github.com/doy/rbw/pull/207 for fix @@#}
  "lock_timeout": 28800,
  "sync_interval": 3600,
  "pinentry": "{{@@ brew_prefix @@}}/bin/pinentry-mac",
  "client_cert_path": null
}
